<svg width="40" height="40" viewBox="0 0 40 40" fill="none" xmlns="http://www.w3.org/2000/svg">
<line x1="20.0488" y1="38.1104" x2="20.0488" y2="27.9163" stroke="#F0597D" stroke-width="2"/>
<path d="M20.1054 21.5529L22.4998 14.4999" stroke="#F0597D" stroke-width="2"/>
<path fill-rule="evenodd" clip-rule="evenodd" d="M18.1914 9.57062C16.9986 9.66263 15.9207 9.83878 14.9542 10.0667L15.3205 12.0354C16.2375 11.8139 17.277 11.6419 18.4438 11.5573L18.1914 9.57062ZM21.5563 11.5487C24.4066 11.7384 26.5077 12.4498 27.9296 13.143C28.7519 13.5439 29.3512 13.9409 29.7397 14.2321L26.4601 20.4312H13.7145L10.3902 14.2294C10.7788 13.9384 11.3771 13.5426 12.1969 13.1428C12.2817 13.1015 12.3689 13.0601 12.4585 13.0187L11.4898 11.2638C11.4325 11.2909 11.376 11.318 11.3204 11.3451C10.3635 11.8117 9.65113 12.2823 9.17028 12.6443C8.92987 12.8253 8.74725 12.9792 8.62076 13.092C8.5575 13.1484 8.50825 13.1945 8.4728 13.2286C8.45507 13.2457 8.44079 13.2597 8.42993 13.2706L8.41619 13.2844L8.41124 13.2895L8.40924 13.2915L8.40836 13.2924C8.40795 13.2928 8.40756 13.2932 9.12645 13.9884L8.40756 13.2932L7.90039 13.8177L8.24508 14.4608L12.2346 21.9037L12.5174 22.4312H13.116H27.0624H27.6647L27.9463 21.8989L31.8839 14.456L32.2232 13.8147L31.7188 13.2932L31 13.9884C31.7188 13.2932 31.7184 13.2928 31.718 13.2924L31.7171 13.2914L31.7151 13.2894L31.7102 13.2843L31.6965 13.2705C31.6856 13.2597 31.6713 13.2456 31.6536 13.2286C31.6181 13.1945 31.5689 13.1483 31.5056 13.092C31.3791 12.9792 31.1965 12.8253 30.9561 12.6444C30.4753 12.2824 29.7629 11.8118 28.806 11.3453C27.1826 10.5538 24.8675 9.78009 21.8045 9.56104L21.5563 11.5487Z" fill="#F0597D"/>
<circle cx="20" cy="20" r="19" stroke="#866DAF" stroke-width="2"/>
</svg>
