<svg viewBox="0 0 262 409" fill="none" xmlns="http://www.w3.org/2000/svg">
<path d="M261.314 211.809C260.936 211.809 260.628 211.501 260.628 211.123V38.0461C260.628 17.8052 244.195 1.37227 223.954 1.37227H38.0118C17.8052 1.37227 1.37227 17.8052 1.37227 38.0461V211.158C1.37227 211.535 1.06351 211.844 0.686133 211.844C0.30876 211.844 0 211.535 0 211.158V38.0461C0 17.0504 17.0504 0 38.0461 0H223.988C244.95 0 262 17.0504 262 38.0461V211.158C262 211.501 261.691 211.809 261.314 211.809Z" fill="url(#paint0_linear2)"/>
<path d="M111.188 11.4243C109.404 11.4243 107.963 9.98338 107.963 8.19944C107.963 6.41549 109.404 4.97461 111.188 4.97461C112.972 4.97461 114.413 6.41549 114.413 8.19944C114.413 9.98338 112.938 11.4243 111.188 11.4243ZM111.188 6.38118C110.159 6.38118 109.335 7.20454 109.335 8.23374C109.335 9.26294 110.159 10.0863 111.188 10.0863C112.217 10.0863 113.041 9.26294 113.041 8.23374C113.041 7.20454 112.183 6.38118 111.188 6.38118Z" fill="url(#paint1_linear2)"/>
<path d="M124.67 11.4243C122.886 11.4243 121.446 9.98338 121.446 8.19944C121.446 6.41549 122.886 4.97461 124.67 4.97461C126.454 4.97461 127.895 6.41549 127.895 8.19944C127.895 9.98338 126.42 11.4243 124.67 11.4243ZM124.67 6.38118C123.641 6.38118 122.818 7.20454 122.818 8.23374C122.818 9.26294 123.641 10.0863 124.67 10.0863C125.7 10.0863 126.523 9.26294 126.523 8.23374C126.523 7.20454 125.665 6.38118 124.67 6.38118Z" fill="url(#paint2_linear2)"/>
<path d="M137.741 11.4243C135.957 11.4243 134.517 9.98338 134.517 8.19944C134.517 6.41549 135.957 4.97461 137.741 4.97461C139.525 4.97461 140.966 6.41549 140.966 8.19944C140.966 9.98338 139.525 11.4243 137.741 11.4243ZM137.741 6.38118C136.712 6.38118 135.889 7.20454 135.889 8.23374C135.889 9.26294 136.712 10.0863 137.741 10.0863C138.771 10.0863 139.594 9.26294 139.594 8.23374C139.594 7.20454 138.771 6.38118 137.741 6.38118Z" fill="url(#paint3_linear2)"/>
<path d="M150.812 11.4243C149.028 11.4243 147.587 9.98338 147.587 8.19944C147.587 6.41549 149.028 4.97461 150.812 4.97461C152.596 4.97461 154.037 6.41549 154.037 8.19944C154.037 9.98338 152.596 11.4243 150.812 11.4243ZM150.812 6.38118C149.783 6.38118 148.96 7.20454 148.96 8.23374C148.96 9.26294 149.783 10.0863 150.812 10.0863C151.841 10.0863 152.665 9.26294 152.665 8.23374C152.665 7.20454 151.841 6.38118 150.812 6.38118Z" fill="url(#paint4_linear2)"/>
<path fill-rule="evenodd" clip-rule="evenodd" d="M183.172 177.968C184.03 177.183 184.874 176.375 185.702 175.547C200.316 160.933 208.379 141.515 208.379 120.828C208.379 100.141 200.316 80.7236 185.702 66.109C171.087 51.4943 151.635 43.4323 130.983 43.4323C110.296 43.4323 90.8783 51.4943 76.2636 66.109C61.649 80.7236 53.5869 100.141 53.5869 120.828C53.5869 141.515 61.649 160.933 76.2636 175.547C76.8507 176.134 77.4456 176.711 78.048 177.277C78.4637 176.977 78.8835 176.683 79.3075 176.395C64.4195 162.533 55.0964 142.769 55.0964 120.862C55.0964 79.0083 89.1286 44.9761 130.983 44.9761C172.837 44.9761 206.869 78.974 206.869 120.828C206.869 143.088 197.243 163.146 181.933 177.047C182.35 177.348 182.763 177.655 183.172 177.968Z" fill="#866DAF"/>
<path fill-rule="evenodd" clip-rule="evenodd" d="M198.096 195.421C199.4 194.243 200.678 193.027 201.929 191.774C220.9 172.837 231.33 147.622 231.33 120.828C231.33 94.0347 220.866 68.8193 201.929 49.882C182.992 30.9104 157.776 20.4812 130.983 20.4812C104.189 20.4812 78.9738 30.9447 60.0366 49.882C41.065 68.8193 30.6357 94.0347 30.6357 120.828C30.6357 147.622 41.0993 172.837 60.0366 191.774C60.8839 192.623 61.7439 193.455 62.616 194.27C62.8853 193.808 63.161 193.35 63.443 192.897C44.2116 174.85 32.1795 149.212 32.1795 120.828C32.1795 66.3492 76.5037 22.025 130.983 22.025C185.496 22.025 229.82 66.3149 229.82 120.828C229.82 149.826 217.268 175.941 197.318 194.035C197.584 194.493 197.843 194.955 198.096 195.421Z" fill="#866DAF"/>
<path fill-rule="evenodd" clip-rule="evenodd" d="M115.599 166.179L110.296 166.216C84.5659 166.216 62.3009 183.644 56.0914 208.619L48.6125 238.706C48.3381 239.701 48.5782 240.73 49.1957 241.519C49.8133 242.308 50.7395 242.788 51.7687 242.788L65.6973 242.925V348.727C65.6973 349.585 66.0403 350.443 66.6578 351.06C67.2754 351.678 68.0987 352.021 68.9907 352.021L195.376 351.335C197.195 351.335 198.67 349.859 198.67 348.041V242.891L210.334 242.617C211.363 242.617 212.324 242.102 212.941 241.244C213.559 240.387 213.731 239.323 213.422 238.328L202.89 204.982C199.287 193.592 192.289 183.815 182.649 176.748C173.009 169.681 161.584 165.941 149.611 165.941L148.167 165.951C148.159 166.39 148.133 166.825 148.091 167.255L149.577 167.245C173.489 167.245 194.347 182.58 201.517 205.36L212.049 238.706C212.221 239.289 212.118 239.906 211.775 240.421C211.398 240.936 210.849 241.244 210.231 241.244L197.229 241.553V347.972C197.229 349.036 196.371 349.894 195.308 349.894L68.9907 350.545C68.4761 350.545 67.9958 350.374 67.6184 349.997C67.2411 349.619 67.0352 349.139 67.0352 348.624V241.485L51.7344 241.347C51.1512 241.347 50.6023 241.073 50.2249 240.593C49.8819 240.112 49.7447 239.529 49.8819 238.946L57.3607 208.859C63.433 184.535 85.1834 167.519 110.262 167.519L115.713 167.481C115.658 167.052 115.62 166.617 115.599 166.179Z" fill="#866DAF"/>
<path d="M131.909 182.683C131.806 182.683 131.703 182.683 131.6 182.683C122.372 182.546 114.824 174.758 114.824 165.358V154.586C114.824 154.174 115.168 153.831 115.579 153.831C115.991 153.831 116.334 154.174 116.334 154.586V165.358C116.334 173.935 123.195 181.036 131.635 181.173C135.854 181.242 139.8 179.664 142.819 176.714C145.803 173.763 147.45 169.818 147.45 165.633L147.107 143.814V134.757C147.107 132.904 148.445 131.326 150.263 131.017C156.37 129.954 162.717 124.842 162.717 118.084C162.717 110.845 156.816 104.944 149.577 104.944C149.165 104.944 148.822 104.601 148.822 104.189C148.822 103.778 149.165 103.435 149.577 103.435C157.639 103.435 164.192 109.987 164.192 118.049C164.192 125.597 157.228 131.292 150.503 132.458C149.406 132.664 148.617 133.59 148.617 134.722V143.779L148.96 165.598C148.96 170.23 147.141 174.552 143.848 177.777C140.657 180.968 136.403 182.683 131.909 182.683Z" fill="#866DAF"/>
<path d="M132.801 154.62H119.284C108.272 154.62 99.3521 145.666 99.3521 134.688V101.616C99.3521 101.239 99.6608 100.93 100.038 100.93C100.416 100.93 100.724 101.239 100.724 101.616V134.688C100.724 144.911 109.061 153.248 119.284 153.248H132.801C133.178 153.248 133.487 153.557 133.487 153.934C133.487 154.311 133.178 154.62 132.801 154.62Z" fill="#866DAF"/>
<path d="M158.462 119.593C158.085 119.593 157.776 119.284 157.776 118.907C157.776 116.471 155.787 114.481 153.351 114.481C150.915 114.481 148.925 116.471 148.925 118.907C148.925 119.284 148.616 119.593 148.239 119.593C147.862 119.593 147.553 119.284 147.553 118.907C147.553 115.716 150.16 113.109 153.351 113.109C156.541 113.109 159.149 115.716 159.149 118.907C159.149 119.284 158.84 119.593 158.462 119.593Z" fill="#866DAF"/>
<path d="M153.351 125.116C152.973 125.116 152.665 124.808 152.665 124.43V113.795C152.665 113.418 152.973 113.109 153.351 113.109C153.728 113.109 154.037 113.418 154.037 113.795V124.43C154.037 124.808 153.728 125.116 153.351 125.116Z" fill="#866DAF"/>
<path d="M99.7639 132.767C99.6953 132.767 99.661 132.767 99.5924 132.733C93.5201 131.086 89.2661 125.528 89.2661 119.25C89.2661 113.041 93.4515 107.483 99.4209 105.802C99.7983 105.699 100.176 105.905 100.279 106.282C100.381 106.659 100.176 107.037 99.7983 107.14C94.4121 108.684 90.6384 113.658 90.6384 119.284C90.6384 124.979 94.4807 129.954 99.9355 131.463C100.313 131.566 100.519 131.943 100.416 132.321C100.347 132.561 100.073 132.767 99.7639 132.767Z" fill="#866DAF"/>
<path d="M94.6521 118.907C94.6521 116.094 96.9506 113.795 99.7638 113.795L94.6521 118.907Z" fill="#EEEAF4"/>
<path d="M94.6522 119.593C94.2748 119.593 93.9661 119.284 93.9661 118.907C93.9661 115.716 96.5734 113.109 99.7639 113.109C100.141 113.109 100.45 113.418 100.45 113.795C100.45 114.173 100.141 114.481 99.7639 114.481C97.3281 114.481 95.3383 116.471 95.3383 118.907C95.3383 119.284 95.0296 119.593 94.6522 119.593Z" fill="#866DAF"/>
<path d="M121.686 135.752H116.368C115.271 135.752 114.413 134.86 114.413 133.796V110.57C114.413 110.193 114.722 109.884 115.099 109.884C115.476 109.884 115.785 110.193 115.785 110.57V133.796C115.785 134.139 116.06 134.379 116.368 134.379H121.686C122.063 134.379 122.372 134.688 122.372 135.065C122.372 135.443 122.063 135.752 121.686 135.752Z" fill="#866DAF"/>
<path d="M123.641 126.42C125.157 126.42 126.386 125.191 126.386 123.675C126.386 122.16 125.157 120.931 123.641 120.931C122.125 120.931 120.897 122.16 120.897 123.675C120.897 125.191 122.125 126.42 123.641 126.42Z" fill="#866DAF"/>
<path d="M110.056 126.42C111.572 126.42 112.8 125.191 112.8 123.675C112.8 122.16 111.572 120.931 110.056 120.931C108.54 120.931 107.311 122.16 107.311 123.675C107.311 125.191 108.54 126.42 110.056 126.42Z" fill="#866DAF"/>
<path d="M118.392 143.196C115.991 143.196 113.727 141.892 112.526 139.8C112.32 139.457 112.457 139.045 112.766 138.873C113.109 138.668 113.521 138.805 113.692 139.114C114.653 140.795 116.437 141.824 118.392 141.824C120.348 141.824 122.097 140.795 123.092 139.114C123.298 138.771 123.71 138.668 124.019 138.873C124.327 139.079 124.465 139.491 124.259 139.8C123.058 141.892 120.794 143.196 118.392 143.196Z" fill="#866DAF"/>
<path d="M141.035 125.116C138.325 125.116 136.129 122.921 136.129 120.211V107.037C136.129 105.665 135.031 104.567 133.659 104.567H105.802C103.4 104.567 101.033 103.572 99.3523 101.856C97.6713 100.141 96.7793 97.9455 96.8479 95.6127C96.9508 90.8441 100.896 87.0017 105.63 87.0017C106.008 87.0017 106.317 87.3105 106.317 87.6878C106.317 88.0652 106.008 88.374 105.63 88.374C101.617 88.374 98.2888 91.6331 98.2202 95.647C98.1859 97.6025 98.9406 99.455 100.347 100.896C101.788 102.371 103.778 103.194 105.836 103.194H133.693C135.82 103.194 137.536 104.91 137.536 107.037V120.245C137.536 122.2 139.114 123.778 141.069 123.778C143.025 123.778 144.603 122.2 144.603 120.245V104.258C144.603 103.881 144.912 103.572 145.289 103.572C145.666 103.572 145.975 103.881 145.975 104.258V120.245C145.906 122.921 143.711 125.116 141.035 125.116Z" fill="#866DAF"/>
<path d="M96.1959 108.409C91.4616 108.409 87.585 104.567 87.585 99.7982C87.585 96.7449 89.2317 93.8974 91.8733 92.3536C92.2164 92.1478 92.628 92.285 92.7996 92.5938C93.0054 92.9368 92.8682 93.3485 92.5594 93.52C90.3295 94.8237 88.9572 97.1908 88.9572 99.7638C88.9572 103.743 92.1821 107.003 96.1959 107.003C96.5733 107.003 96.8821 107.311 96.8821 107.689C96.8821 108.066 96.6076 108.409 96.1959 108.409Z" fill="#866DAF"/>
<path d="M151.841 104.91C151.464 104.91 151.155 104.601 151.155 104.224V101.582C151.155 89.0601 140.966 78.871 128.444 78.871H94.5493C91.2216 78.871 88.4427 81.4097 88.2712 84.6346C88.2712 84.7718 88.2712 84.909 88.2712 85.0462C88.2712 89.0258 91.496 92.285 95.5099 92.285C95.8873 92.285 96.196 92.5937 96.196 92.9711C96.196 93.3485 95.8873 93.6572 95.5099 93.6572C90.7756 93.6572 86.8989 89.8149 86.8989 85.0462C86.8989 84.8747 86.8989 84.7375 86.8989 84.566C87.1048 80.6207 90.4668 77.4988 94.5493 77.4988H128.444C141.721 77.4988 152.528 88.3054 152.528 101.582V104.224C152.528 104.601 152.219 104.91 151.841 104.91Z" fill="#866DAF"/>
<path d="M193.421 408.455C193.044 408.455 192.735 408.146 192.735 407.769V351.335C192.735 350.957 193.044 350.648 193.421 350.648C193.798 350.648 194.107 350.957 194.107 351.335V407.769C194.107 408.146 193.798 408.455 193.421 408.455Z" fill="url(#paint5_linear2)"/>
<path d="M71.1864 408.455C70.809 408.455 70.5002 408.146 70.5002 407.769V351.335C70.5002 350.957 70.809 350.648 71.1864 350.648C71.5638 350.648 71.8725 350.957 71.8725 351.335V407.769C71.8725 408.146 71.5638 408.455 71.1864 408.455Z" fill="url(#paint6_linear2)"/>
<path d="M131.292 394.081C130.914 394.081 130.605 393.772 130.605 393.395V351.335C130.605 350.957 130.914 350.648 131.292 350.648C131.669 350.648 131.978 350.957 131.978 351.335V393.395C131.978 393.772 131.669 394.081 131.292 394.081Z" fill="url(#paint7_linear2)"/>
<path d="M51.7687 362.107C51.3913 362.107 51.0825 361.798 51.0825 361.421V242.102C51.0825 241.725 51.3913 241.416 51.7687 241.416C52.146 241.416 52.4548 241.725 52.4548 242.102V361.421C52.4548 361.798 52.146 362.107 51.7687 362.107Z" fill="url(#paint8_linear2)"/>
<path d="M209.511 362.107C209.133 362.107 208.825 361.798 208.825 361.421V242.102C208.825 241.725 209.133 241.416 209.511 241.416C209.888 241.416 210.197 241.725 210.197 242.102V361.421C210.197 361.798 209.888 362.107 209.511 362.107Z" fill="url(#paint9_linear2)"/>
<defs>
<linearGradient id="paint0_linear2" x1="130.998" y1="211.815" x2="130.998" y2="0" gradientUnits="userSpaceOnUse">
<stop stop-color="#EEEAF4"/>
<stop offset="1" stop-color="#866DAF"/>
</linearGradient>
<linearGradient id="paint1_linear2" x1="111.176" y1="11.4294" x2="111.176" y2="5.00024" gradientUnits="userSpaceOnUse">
<stop stop-color="#EEEAF4"/>
<stop offset="1" stop-color="#866DAF"/>
</linearGradient>
<linearGradient id="paint2_linear2" x1="124.664" y1="11.4294" x2="124.664" y2="5.00024" gradientUnits="userSpaceOnUse">
<stop stop-color="#EEEAF4"/>
<stop offset="1" stop-color="#866DAF"/>
</linearGradient>
<linearGradient id="paint3_linear2" x1="137.742" y1="11.4294" x2="137.742" y2="5.00024" gradientUnits="userSpaceOnUse">
<stop stop-color="#EEEAF4"/>
<stop offset="1" stop-color="#866DAF"/>
</linearGradient>
<linearGradient id="paint4_linear2" x1="150.82" y1="11.4294" x2="150.82" y2="5.00024" gradientUnits="userSpaceOnUse">
<stop stop-color="#EEEAF4"/>
<stop offset="1" stop-color="#866DAF"/>
</linearGradient>
<linearGradient id="paint5_linear2" x1="193.423" y1="408.47" x2="193.423" y2="350.649" gradientUnits="userSpaceOnUse">
<stop stop-color="#EEEAF4"/>
<stop offset="1" stop-color="#866DAF"/>
</linearGradient>
<linearGradient id="paint6_linear2" x1="71.1834" y1="408.47" x2="71.1834" y2="350.649" gradientUnits="userSpaceOnUse">
<stop stop-color="#EEEAF4"/>
<stop offset="1" stop-color="#866DAF"/>
</linearGradient>
<linearGradient id="paint7_linear2" x1="131.307" y1="394.077" x2="131.307" y2="350.649" gradientUnits="userSpaceOnUse">
<stop stop-color="#EEEAF4"/>
<stop offset="1" stop-color="#866DAF"/>
</linearGradient>
<linearGradient id="paint8_linear2" x1="51.7594" y1="362.103" x2="51.7594" y2="241.405" gradientUnits="userSpaceOnUse">
<stop stop-color="#EEEAF4"/>
<stop offset="1" stop-color="#866DAF"/>
</linearGradient>
<linearGradient id="paint9_linear2" x1="209.506" y1="362.103" x2="209.506" y2="241.405" gradientUnits="userSpaceOnUse">
<stop stop-color="#EEEAF4"/>
<stop offset="1" stop-color="#866DAF"/>
</linearGradient>
</defs>
</svg>
